<?xml version="1.0" encoding="UTF-8" standalone="no"?>
<svg
   xmlns:dc="http://purl.org/dc/elements/1.1/"
   xmlns:cc="http://creativecommons.org/ns#"
   xmlns:rdf="http://www.w3.org/1999/02/22-rdf-syntax-ns#"
   xmlns:svg="http://www.w3.org/2000/svg"
   xmlns="http://www.w3.org/2000/svg"
   xmlns:sodipodi="http://sodipodi.sourceforge.net/DTD/sodipodi-0.dtd"
   xmlns:inkscape="http://www.inkscape.org/namespaces/inkscape"
   width="16px"
   height="17px"
   viewBox="0 0 16 17"
   version="1.1"
   id="svg16"
   sodipodi:docname="consumo-icon.svg"
   inkscape:version="0.92.1 r15371">
  <metadata
     id="metadata20">
    <rdf:RDF>
      <cc:Work
         rdf:about="">
        <dc:format>image/svg+xml</dc:format>
        <dc:type
           rdf:resource="http://purl.org/dc/dcmitype/StillImage" />
      </cc:Work>
    </rdf:RDF>
  </metadata>
  <sodipodi:namedview
     pagecolor="#ffffff"
     bordercolor="#666666"
     borderopacity="1"
     objecttolerance="10"
     gridtolerance="10"
     guidetolerance="10"
     inkscape:pageopacity="0"
     inkscape:pageshadow="2"
     inkscape:window-width="850"
     inkscape:window-height="480"
     id="namedview18"
     showgrid="false"
     inkscape:zoom="13.882353"
     inkscape:cx="8"
     inkscape:cy="8.5"
     inkscape:window-x="0"
     inkscape:window-y="26"
     inkscape:window-maximized="0"
     inkscape:current-layer="svg16" />
  <!-- Generator: Sketch 44.1 (41455) - http://www.bohemiancoding.com/sketch -->
  <title
     id="title2">carrinho</title>
  <desc
     id="desc4">Created with Sketch.</desc>
  <defs
     id="defs6" />
  <g
     id="Symbols"
     stroke="none"
     stroke-width="1"
     fill="none"
     fill-rule="evenodd"
     style="fill:#000000">
    <g
       id="cabeçalho-padrao-grande"
       transform="translate(-706.000000, -124.000000)"
       fill="#A1C7F6"
       style="fill:#000000">
      <g
         id="carrinho"
         transform="translate(706.000000, 124.000000)"
         style="fill:#000000">
        <path
           d="M12.6535294,16.5122466 C12.8930588,16.7809198 13.1823529,16.9153224 13.5211765,16.9153224 C13.8596471,16.9153224 14.1489412,16.7809198 14.3884706,16.5122466 C14.6281176,16.2437052 14.748,15.9196353 14.748,15.5397733 C14.748,15.1600431 14.6282353,14.8358414 14.3884706,14.5671681 C14.1489412,14.2987586 13.8596471,14.1642241 13.5211765,14.1642241 C13.1823529,14.1642241 12.8930588,14.2987586 12.6535294,14.5671681 C12.4141176,14.8358414 12.294,15.1600431 12.294,15.5397733 C12.294,15.9196353 12.4141176,16.2437052 12.6535294,16.5122466 Z"
           id="Shape"
           style="fill:#000000" />
        <path
           d="M15.3614118,1.45996293 L3.84964706,1.45996293 C3.84317647,1.40984224 3.82882353,1.31856983 3.80647059,1.18601379 C3.78411765,1.05345776 3.76658824,0.947808621 3.75376471,0.868934483 C3.74094118,0.790324138 3.71705882,0.695358621 3.68188235,0.584301724 C3.64670588,0.473244828 3.60517647,0.385401724 3.55729412,0.321036207 C3.50941176,0.256406897 3.44552941,0.201010345 3.36564706,0.154318966 C3.28576471,0.107891379 3.19470588,0.0845456897 3.09247059,0.0845456897 L0.638705882,0.0845456897 C0.472470588,0.0845456897 0.328705882,0.152736207 0.207294118,0.288721552 C0.0858823529,0.424838793 0.0251764706,0.586148276 0.0251764706,0.772386207 C0.0251764706,0.958624138 0.0858823529,1.11980172 0.207294118,1.25591897 C0.328823529,1.39203621 0.472588235,1.46009483 0.638705882,1.46009483 L2.59388235,1.46009483 L4.29035294,10.3041543 C4.27764706,10.3327759 4.21211765,10.4688931 4.09388235,10.712506 C3.97564706,10.9562509 3.88141176,11.1692638 3.81117647,11.3519405 C3.74094118,11.5347491 3.70576471,11.6762741 3.70576471,11.7765155 C3.70576471,11.9627534 3.76647059,12.1240629 3.88788235,12.2601802 C4.00941176,12.3960336 4.15317647,12.464356 4.31929412,12.464356 L4.93270588,12.464356 L13.5210588,12.464356 L14.1341176,12.464356 C14.3002353,12.464356 14.4441176,12.3960336 14.5654118,12.2601802 C14.6869412,12.1240629 14.7476471,11.9627534 14.7476471,11.7765155 C14.7476471,11.5902776 14.6869412,11.4289681 14.5654118,11.2929828 C14.4441176,11.1568655 14.3002353,11.088675 14.1341176,11.088675 L5.316,11.088675 C5.46941176,10.7448207 5.54611765,10.5157164 5.54611765,10.4010983 C5.54611765,10.3292147 5.53811765,10.2504724 5.52211765,10.1646078 C5.50611765,10.0787431 5.48694118,9.98377759 5.46458824,9.87971121 C5.44223529,9.77604052 5.42788235,9.69901293 5.42152941,9.64889224 L15.4285882,8.33784052 C15.5882353,8.31634138 15.7192941,8.23944569 15.8215294,8.10688966 C15.9237647,7.97433362 15.9748235,7.822125 15.9748235,7.6501319 L15.9748235,2.14793534 C15.9747059,1.96169741 15.9141176,1.80051983 15.7927059,1.66413879 C15.6711765,1.52802155 15.5275294,1.45996293 15.3614118,1.45996293 Z"
           id="path9"
           style="fill:#000000" />
        <path
           d="M4.06517647,16.5122466 C4.30494118,16.7809198 4.594,16.9153224 4.93270588,16.9153224 C5.27129412,16.9153224 5.56047059,16.7809198 5.80011765,16.5122466 C6.03976471,16.2437052 6.15964706,15.9196353 6.15964706,15.5397733 C6.15964706,15.1600431 6.03988235,14.8358414 5.80011765,14.5671681 C5.56047059,14.2987586 5.27129412,14.1642241 4.93270588,14.1642241 C4.594,14.1642241 4.30482353,14.2987586 4.06517647,14.5671681 C3.82564706,14.8358414 3.70576471,15.1600431 3.70576471,15.5397733 C3.70576471,15.9196353 3.82552941,16.2437052 4.06517647,16.5122466 Z"
           id="path11"
           style="fill:#000000" />
      </g>
    </g>
  </g>
</svg>
