<?xml version="1.0" encoding="UTF-8"?>
<svg width="74px" height="136px" viewBox="0 0 74 136" version="1.1" xmlns="http://www.w3.org/2000/svg" xmlns:xlink="http://www.w3.org/1999/xlink">
    <!-- Generator: Sketch 44.1 (41455) - http://www.bohemiancoding.com/sketch -->
    <title>lightning14icon</title>
    <desc>Created with Sketch.</desc>
    <defs></defs>
    <g id="Symbols" stroke="none" stroke-width="1" fill="none" fill-rule="evenodd">
        <g id="lightning14" fill="#4990E2">
            <path d="M72.6,35.899 C71.786,35.085 70.862,34.678 69.83,34.676 C69.611,34.676 69.287,34.731 68.851,34.839 L36.588,42.823 L50.519,5.101 C50.79,4.558 50.927,4.07 50.927,3.635 C50.927,2.712 50.573,1.911 49.867,1.232 C49.161,0.552 48.292,0.213 47.261,0.213 L20.538,0.213 C19.669,0.213 18.909,0.457 18.257,0.946 C17.605,1.435 17.17,2.06 16.953,2.82 L0.577,70.036 C0.305,71.339 0.658,72.399 1.636,73.214 C2.342,73.813 3.183,74.11 4.161,74.11 C4.596,74.11 4.922,74.084 5.139,74.029 L38.217,65.8 L22.167,131.631 C21.95,132.5 22.072,133.315 22.534,134.074 C22.996,134.836 23.689,135.351 24.612,135.623 C25.155,135.73 25.536,135.785 25.753,135.785 C27.328,135.785 28.468,135.107 29.175,133.749 L73.17,39.484 C73.768,38.18 73.579,36.985 72.6,35.899 L72.6,35.899 Z" id="Shape"></path>
        </g>
    </g>
</svg>